{
  "@type": "Property",
  "term": {
    "@id": "activeIngredient",
    "@type": "Term",
    "name": "Active Ingredient",
    "units": "%",
    "termType": "property"
  },
  "key": {
    "@id": "CAS-111-30-8",
    "@type": "Term",
    "name": "Pentanedial",
    "termType": "pesticideAI"
  },
  "value": 25
}
