{
  "@type": "Transformation",
  "term": {
    "@id": "compostingInVessel",
    "@type": "Term",
    "name": "Composting - In Vessel",
    "termType": "excretaManagement"
  },
  "transformationDuration": 300,
  "previousTransformationTerm": {
    "@id": "dryLot",
    "@type": "Term",
    "name": "Dry lot",
    "termType": "excretaManagement"
  },
  "transformedShare": 100,
  "inputs": [
    {
      "@type": "Input",
      "term": {
        "@id": "excretaBeefCattleFeedlotFedKgN",
        "@type": "Term",
        "name": "Excreta, beef cattle, feedlot fed (kg N)",
        "units": "kg N",
        "termType": "excreta"
      },
      "value": [
        150
      ]
    },
    {
      "@type": "Input",
      "term": {
        "@id": "rapeseedStraw",
        "@type": "Term",
        "name": "Rapeseed, straw",
        "units": "kg",
        "termType": "crop"
      },
      "value": [
        25
      ]
    }
  ],
  "emissions": [
    {
      "@type": "Emission",
      "term": {
        "@id": "ch4ToAirExcreta",
        "@type": "Term",
        "name": "CH4, to air, excreta",
        "units": "kg CH4",
        "termType": "emission"
      },
      "value": [
        8.7
      ],
      "methodModel": {
        "@id": "emeaEea2019",
        "@type": "Term",
        "name": "EMEA-EEA (2019)",
        "termType": "model"
      },
      "methodTier": "tier 2"
    }
  ],
  "products": [
    {
      "@type": "Product",
      "term": {
        "@id": "excretaMixturesKgN",
        "@type": "Term",
        "name": "Excreta mixtures (kg N)",
        "units": "kg N",
        "termType": "excreta"
      },
      "value": [
        160
      ]
    }
  ]
}
